C:\RevisionTutorial\springCore\src\main\java\com\tilahun\spring\springCore\lc\annotations\Test.java
C:\RevisionTutorial\springCore\src\main\java\com\tilahun\spring\springCore\lc\annotations\Patient.java
C:\RevisionTutorial\springCore\src\main\java\com\tilahun\spring\springCore\InnerBeans\Test.java
C:\RevisionTutorial\springCore\src\main\java\com\tilahun\spring\springCore\dependencyCheck\Prescription.java
C:\RevisionTutorial\springCore\src\main\java\com\tilahun\spring\springCore\set\CarDealer.java
C:\RevisionTutorial\springCore\src\main\java\com\tilahun\spring\springCore\dependencyCheck\Test.java
C:\RevisionTutorial\springCore\src\main\java\com\tilahun\spring\springCore\lc\xmlconfig\Patient.java
C:\RevisionTutorial\springCore\src\main\java\com\tilahun\spring\springCore\InnerBeans\Employee.java
C:\RevisionTutorial\springCore\src\main\java\com\tilahun\spring\springCore\map\Test.java
C:\RevisionTutorial\springCore\src\main\java\com\tilahun\spring\springCore\lc\xmlconfig\Test.java
C:\RevisionTutorial\springCore\src\main\java\com\tilahun\spring\springCore\lc\interfaces\Test.java
C:\RevisionTutorial\springCore\src\main\java\com\tilahun\spring\springCore\list\Test.java
C:\RevisionTutorial\springCore\src\main\java\com\tilahun\spring\springCore\refTpyes\Test.java
C:\RevisionTutorial\springCore\src\main\java\com\tilahun\spring\springCore\constractorInjection\Address.java
C:\RevisionTutorial\springCore\src\main\java\com\tilahun\spring\springCore\map\Customer.java
C:\RevisionTutorial\springCore\src\main\java\com\tilahun\spring\springCore\set\Test.java
C:\RevisionTutorial\springCore\src\main\java\com\tilahun\spring\springCore\refTpyes\Student.java
C:\RevisionTutorial\springCore\src\main\java\com\tilahun\spring\springCore\list\Hospital.java
C:\RevisionTutorial\springCore\src\main\java\com\tilahun\spring\springCore\lc\interfaces\Patient.java
C:\RevisionTutorial\springCore\src\main\java\com\tilahun\spring\springCore\properties\Test.java
C:\RevisionTutorial\springCore\src\main\java\com\tilahun\spring\springCore\constractorInjection\ambiguity\Addition.java
C:\RevisionTutorial\springCore\src\main\java\com\tilahun\spring\springCore\refTpyes\Scores.java
C:\RevisionTutorial\springCore\src\main\java\com\tilahun\spring\springCore\constractorInjection\ambiguity\Test.java
C:\RevisionTutorial\springCore\src\main\java\com\tilahun\spring\springCore\InnerBeans\Address.java
C:\RevisionTutorial\springCore\src\main\java\com\tilahun\spring\springCore\constractorInjection\Test.java
C:\RevisionTutorial\springCore\src\main\java\com\tilahun\spring\springCore\Employee.java
C:\RevisionTutorial\springCore\src\main\java\com\tilahun\spring\springCore\properties\CountriesAndLanguages.java
C:\RevisionTutorial\springCore\src\main\java\com\tilahun\spring\springCore\constractorInjection\Employee.java
C:\RevisionTutorial\springCore\src\main\java\com\tilahun\spring\springCore\Test.java
